{
  "id": 8,
  "user": {
    "id": "3",
    "plan_id": "33",
    "refid": "0",
    "type": "user",
    "firstname": "Vendor",
    "lastname": "Account",
    "email": "vendor@gmail.com",
    "username": "ven1",
    "password": "3d4f2bf07dc1be38b20cd6e46949a1071f9d0e3d",
    "phone": "",
    "twaddress": "",
    "address1": "",
    "address2": "",
    "ucity": "",
    "ucountry": "13",
    "state": "0",
    "uzip": "",
    "avatar": "",
    "online": "1",
    "unique_url": "",
    "bitly_unique_url": "",
    "updated_at": "",
    "google_id": "",
    "facebook_id": "",
    "twitter_id": "",
    "umode": "",
    "PhoneNumber": "",
    "Addressone": "",
    "Addresstwo": "",
    "City": "",
    "Country": "13",
    "StateProvince": "",
    "Zip": "",
    "f_link": "",
    "t_link": "",
    "l_link": "",
    "products_wishlist": null,
    "product_commission": "0",
    "affiliate_commission": "0",
    "product_commission_paid": "0",
    "affiliate_commission_paid": "0",
    "product_total_click": "0",
    "product_total_sale": "0",
    "affiliate_total_click": "0",
    "sale_commission": "0",
    "sale_commission_paid": "0",
    "status": "1",
    "reg_approved": "1",
    "is_vendor": "1",
    "store_meta": "{\"cover_text_color\":\"#FFFFFF\"}",
    "store_slug": "vendor-store",
    "store_name": "VENDOR STORE",
    "value": "{\"is_vendor\":\"1\",\"custom_text-1621449816785\":\"+1201-555-0123\",\"store_name\":\"VENDOR STORE\",\"refid\":\"0\",\"country_id\":\"13\",\"groups\":[\"2\"]}",
    "last_ping": "",
    "install_location_details": "",
    "token": null,
    "created_at": "",
    "device_type": "1",
    "device_token": null,
    "groups": "2"
  },
  "item": {
    "vd_user_id": 3,
    "vd_amount": 1,
    "vd_status": 13,
    "vd_payment_method": "test_payment",
    "vd_meta": "[]"
  },
  "info": "",
  "return_url": "http://localhost/aff/6-0-0-0/usercontrol/my_deposits?vd=8",
  "cancel_url": "http://localhost/aff/6-0-0-0/usercontrol/my_deposits?vdc=1&vd=8",
  "callback_url": "http://localhost/aff/6-0-0-0/usercontrol/payment_gateway/test_payment/confirmation"
}